<svg width="17" height="18" viewBox="0 0 17 18" fill="none" xmlns="http://www.w3.org/2000/svg">
<path d="M12.9356 1C14.2415 1.82444 15.2943 2.9937 15.9776 4.37871M0.999512 4.3787C1.68283 2.99369 2.73556 1.82443 4.0415 1M3.14009 8.0607C3.13812 7.35703 3.27502 6.65989 3.54294 6.00923C3.81086 5.35856 4.20454 4.76715 4.70141 4.26889C5.19828 3.77063 5.78859 3.3753 6.4385 3.10557C7.08842 2.83583 7.78517 2.69699 8.48884 2.69699C9.19251 2.69699 9.88926 2.83583 10.5392 3.10557C11.1891 3.3753 11.7794 3.77063 12.2763 4.26889C12.7731 4.76715 13.1668 5.35856 13.4347 6.00923C13.7027 6.65989 13.8396 7.35703 13.8376 8.0607C13.8376 10.7288 14.3958 12.277 14.8874 13.1232C14.9404 13.2136 14.9686 13.3164 14.9691 13.4212C14.9697 13.526 14.9426 13.629 14.8906 13.72C14.8386 13.811 14.7636 13.8866 14.673 13.9394C14.5824 13.9921 14.4796 14.02 14.3748 14.0202H2.60228C2.49749 14.02 2.39461 13.9921 2.30404 13.9393C2.21347 13.8866 2.13841 13.8109 2.08642 13.7199C2.03443 13.629 2.00736 13.5259 2.00794 13.4211C2.00852 13.3163 2.03673 13.2135 2.08972 13.1231C2.58162 12.2768 3.14009 10.7286 3.14009 8.0607ZM6.10473 14.0202V14.6162C6.10473 15.2484 6.35588 15.8547 6.80293 16.3018C7.24998 16.7488 7.85632 17 8.48854 17C9.12077 17 9.7271 16.7488 10.1742 16.3018C10.6212 15.8547 10.8724 15.2484 10.8724 14.6162V14.0202H6.10473Z" stroke="#898A8D" stroke-width="1.6" stroke-linecap="round" stroke-linejoin="round"/>
</svg>
